|CalculatorTest||08:19:04 Do, Aug 14, 2014|
|FrontPage||08:16:10 Do, Aug 14, 2014|
|TestSuite||17:11:25 Fr, Jul 18, 2014|
|HansPeterFluegelTest||14:01:47 Fr, Jul 18, 2014|
|BlaBlub||12:57:31 Fr, Jul 18, 2014|
|PokerGameTest2||08:47:11 Fr, Jul 18, 2014|
|PokerGameTest||08:39:45 Fr, Jul 18, 2014|
